<svg width="41" height="40" viewBox="0 0 41 40" fill="none" xmlns="http://www.w3.org/2000/svg">
<rect x="0.833374" y="0.5" width="39" height="39" rx="19.5" fill="white"/>
<path d="M20.3334 13.6213C22.2863 13.6213 23.6036 14.4649 24.3547 15.1698L27.2898 12.304C25.4872 10.6284 23.1414 9.6 20.3334 9.6C16.2658 9.6 12.7529 11.9342 11.0427 15.3316L14.4054 17.9431C15.2489 15.4356 17.5832 13.6213 20.3334 13.6213Z" fill="#121212"/>
<path d="M30.3174 20.2311C30.3174 19.376 30.248 18.752 30.0978 18.1049H20.3334V21.9644H26.0649C25.9494 22.9236 25.3254 24.368 23.9387 25.3387L27.2205 27.8809C29.1849 26.0667 30.3174 23.3973 30.3174 20.2311Z" fill="#121212"/>
<path d="M14.4169 22.0569C14.1973 21.4098 14.0702 20.7164 14.0702 20C14.0702 19.2836 14.1973 18.5902 14.4053 17.9431L11.0427 15.3316C10.3378 16.7413 9.93335 18.3244 9.93335 20C9.93335 21.6756 10.3378 23.2587 11.0427 24.6684L14.4169 22.0569Z" fill="#121212"/>
<path d="M20.3334 30.4C23.1414 30.4 25.4988 29.4756 27.2205 27.8809L23.9388 25.3387C23.0605 25.9511 21.8819 26.3787 20.3334 26.3787C17.5832 26.3787 15.249 24.5644 14.417 22.0569L11.0543 24.6684C12.7645 28.0658 16.2659 30.4 20.3334 30.4Z" fill="#121212"/>
<rect x="0.833374" y="0.5" width="39" height="39" rx="19.5" stroke="#121212"/>
</svg>
